{
  "project_info": {
    "project_number": "602857719923",
    "project_id": "beaconsmind-development",
    "storage_bucket": "beaconsmind-development.appspot.com"
  },
  "client": [
    {
      "client_info": {
        "mobilesdk_app_id": "1:602857719923:android:1bc8e8f8bfc0bfaff98206",
        "android_client_info": {
          "package_name": "com.beaconsmind.flutterdemo"
        }
      },
      "oauth_client": [
        {
          "client_id": "602857719923-hbnhjk4se0fe7outhnpgn7k5ducbtqam.apps.googleusercontent.com",
          "client_type": 3
        }
      ],
      "api_key": [
        {
          "current_key": "AIzaSyCkpcZoxscfMF3MxtUBwXglay3kG_kdiGg"
        }
      ],
      "services": {
        "appinvite_service": {
          "other_platform_oauth_client": [
            {
              "client_id": "602857719923-hbnhjk4se0fe7outhnpgn7k5ducbtqam.apps.googleusercontent.com",
              "client_type": 3
            },
            {
              "client_id": "602857719923-0mijtr0ngur2dmqplpdjbmut49pssphn.apps.googleusercontent.com",
              "client_type": 2,
              "ios_info": {
                "bundle_id": "com.beaconsmind.reactdemo"
              }
            }
          ]
        }
      }
    }
  ],
  "configuration_version": "1"
}